[gd_scene load_steps=3 format=3 uid="uid://dtoesbvhdj4ue"]

[sub_resource type="StandardMaterial3D" id="StandardMaterial3D_iwnv5"]
diffuse_mode = 2
albedo_color = Color(0.462745, 0.462745, 0.462745, 1)

[sub_resource type="TorusMesh" id="TorusMesh_slgve"]
material = SubResource("StandardMaterial3D_iwnv5")

[node name="Node3D" type="MeshInstance3D"]
transform = Transform3D(30, 0, 0, 0, -1.31134e-06, -30, 0, 30, -1.31134e-06, 0, 0, 0)
mesh = SubResource("TorusMesh_slgve")
